<?xml version="1.0" encoding="utf-8"?>
<!-- Generator: Adobe Illustrator 19.0.0, SVG Export Plug-In . SVG Version: 6.00 Build 0)  -->
<svg version="1.1" id="Camada_1" xmlns="http://www.w3.org/2000/svg" xmlns:xlink="http://www.w3.org/1999/xlink" x="0px" y="0px"
	 viewBox="0 0 36.4 41.6" style="enable-background:new 0 0 36.4 41.6;" xml:space="preserve">
<style type="text/css">
	.st0{fill:#FFFFFF;}
</style>
<g id="XMLID_2_">
	<g id="XMLID_3_">
		<path id="XMLID_1_" class="st0" d="M9.4,15.3c0.8,0,1.6-0.3,2.3-0.9L15,11v27.4c0,1.8,1.4,3.2,3.2,3.2c1.8,0,3.2-1.4,3.2-3.2V11
			l3.3,3.3c0.6,0.6,1.5,0.9,2.3,0.9s1.6-0.3,2.3-0.9c1.3-1.3,1.3-3.3,0-4.6c-0.2-0.2-0.5-0.5-0.7-0.7c-0.6-0.6-1.1-1.1-1.7-1.7
			c-0.7-0.7-1.5-1.5-2.2-2.2C24,4.4,23.2,3.7,22.5,3c-0.7-0.7-1.4-1.4-2.1-2.1c-0.8-0.7-1.8-1-2.8-0.8c-0.3,0.1-0.5,0.2-0.8,0.3
			c-0.7,0.4-1.3,1.1-1.9,1.6c-0.7,0.7-1.4,1.4-2.1,2.1C12,5,11.1,5.8,10.3,6.7C9.6,7.4,8.8,8.1,8.1,8.8c-0.3,0.3-0.7,0.7-1,1
			c0,0,0,0,0,0c-1.3,1.3-1.3,3.3,0,4.6C7.7,15,8.5,15.3,9.4,15.3z"/>
	</g>
</g>
</svg>
