<?xml version="1.0" encoding="utf-8"?>
<!-- Generator: Adobe Illustrator 19.0.0, SVG Export Plug-In . SVG Version: 6.00 Build 0)  -->
<svg version="1.1" id="Capa_1" xmlns="http://www.w3.org/2000/svg" xmlns:xlink="http://www.w3.org/1999/xlink" x="0px" y="0px"
	 viewBox="-121.6 206.2 98 124.7" style="enable-background:new -121.6 206.2 98 124.7;" xml:space="preserve">
<style type="text/css">
	.st0{fill:#FFFFFF;}
</style>
<g>
	<g>
		<g>
			<path class="st0" d="M-36,222.5h-11.3v-5c0-1.6-1.8-2.4-3.4-2.4h-8.8c-2.1-5.9-7.3-8.9-13.2-8.9c-5.9-0.2-11.2,3.4-13.2,8.9h-8.6
				c-1.6,0-3.3,0.7-3.3,2.4v5h-11.3c-6.7,0.1-12.2,5.3-12.5,12v85.1c0,6.5,5.9,11.3,12.5,11.3H-36c6.5,0,12.5-4.8,12.5-11.3v-85.1
				C-23.9,227.9-29.3,222.6-36,222.5z M-91.9,221h8.2c1.4-0.2,2.6-1.3,2.8-2.7c0.9-3.8,4.2-6.6,8.2-6.7c3.9,0.1,7.2,2.9,8,6.7
				c0.3,1.5,1.5,2.6,3,2.7h8.5v11.9h-38.6V221z M-29.5,319.6c0,3.3-3.3,5.3-6.5,5.3h-73.1c-3.3,0-6.5-2.1-6.5-5.3v-85.1
				c0.3-3.4,3.1-6,6.5-6.1h11.3v7.6c0.2,1.7,1.6,2.9,3.3,2.8h43.8c1.7,0.1,3.2-1.1,3.4-2.8v-7.6H-36c3.4,0.1,6.2,2.7,6.5,6.1
				L-29.5,319.6L-29.5,319.6z"/>
			<path class="st0" d="M-84,272.6c-1.1-1.2-3-1.2-4.2-0.1l-9.5,9.1l-4-4.2c-1.1-1.2-3-1.2-4.2-0.1c-1.2,1.2-1.2,3.1,0,4.3l6.1,6.2
				c0.5,0.6,1.3,0.9,2.1,0.9c0.8,0,1.5-0.3,2.1-0.9l11.6-11c1.1-1.1,1.2-2.8,0.2-4C-83.9,272.7-83.9,272.6-84,272.6z"/>
			<path class="st0" d="M-41.4,279h-34.2c-1.6,0-3,1.3-3,3s1.3,3,3,3h34.2c1.6,0,3-1.3,3-3S-39.7,279-41.4,279z"/>
			<path class="st0" d="M-84,248.8c-1.1-1.2-3-1.2-4.2-0.1l-9.5,9.1l-4-4.2c-1.1-1.2-3-1.2-4.2-0.1c-1.2,1.2-1.2,3.1,0,4.3l6.1,6.2
				c0.5,0.6,1.3,0.9,2.1,0.9c0.8,0,1.5-0.3,2.1-0.9l11.6-11c1.1-1.1,1.2-2.8,0.2-4C-83.9,248.9-83.9,248.9-84,248.8z"/>
			<path class="st0" d="M-41.4,255.2h-34.2c-1.6,0-3,1.3-3,3c0,1.6,1.3,3,3,3h34.2c1.6,0,3-1.3,3-3
				C-38.4,256.5-39.7,255.2-41.4,255.2z"/>
			<path class="st0" d="M-84,296.3c-1.1-1.2-3-1.2-4.2-0.1l-9.5,9.1l-4-4.2c-1.1-1.2-3-1.2-4.2-0.1c-1.2,1.2-1.2,3.1,0,4.3l6.1,6.2
				c0.5,0.6,1.3,0.9,2.1,0.9c0.8,0,1.5-0.3,2.1-0.9l11.6-11c1.1-1.1,1.2-2.8,0.2-4C-83.9,296.4-83.9,296.4-84,296.3z"/>
			<path class="st0" d="M-41.4,302.7h-34.2c-1.6,0-3,1.3-3,3s1.3,3,3,3h34.2c1.6,0,3-1.3,3-3S-39.7,302.7-41.4,302.7z"/>
		</g>
	</g>
</g>
</svg>
